<svg xmlns="http://www.w3.org/2000/svg" width="1600" height="1000" viewBox="0 0 160 100" version="1.0" >
<g id="blocks">
<!-- White BG -->
<rect   fill="white" id="white_back" width="160" height="100"   x="0" y=" 0.0" />

<!-- very light blue -->
<rect   fill="#c5d4ff" id="blue_1_stripe" width="160" height="20"   x="0" y="12.5" />
<path   fill="#c5d4ff" id="blue_1_angle" d="M 0,0 H 25.639984 L 81.638297,14.533253 75.102693,50 H 0 Z"/>
<!-- very light pink -->
<rect   fill="#FFB2E0" id="pink_1_stripe" width="160" height="20"   x="0" y="67.5" />
<path   fill="#FFB2E0" id="pink_1_angle" d="M 0,100 H 18.896746 L 69.04766,82.858836 75.102693,50 H 0 Z"/>

<!-- light blue -->
<rect   fill="#849CFF" id="blue_2_stripe"  width="160" height="20"   x="0" y="25.0" />
<path   fill="#849CFF" id="blue_2_angle" d="M 0,0 H 15.295138 L 78.985256,16.529509 72.81751,50 H 0 Z"/>
<!-- light pink -->
<rect   fill="#FF69A6" id="pink_2_stripe" width="160" height="20"   x="0" y="55.0" />
<path   fill="#FF69A6" id="pink_2_angle" d="M 0,100 H 11.60634 L 67.098912,81.033102 72.81751,50 H 0 Z"/>
 
<!-- blue -->
<rect   fill="#5B71D7" id="blue_3_stripe" width="160" height="20"   x="0" y="37.5" />
<path   fill="#5B71D7" id="blue_3_angle" d="M 0,0 H 4.9502911 L 76.332246,18.525773 70.53236,50 H 0 Z"/>
<!-- pink -->
<rect   fill="#C52B69" id="pink_3_stripe" width="160" height="12.5"   x="0" y="50.0" />
<path   fill="#C52B69" id="pink_3_angle" d="M 0,100 H 4.3159334 L 65.1502,79.207356 70.53236,50 H 0 Z"/>

<!-- white left side -->
<path   fill="white" id="white_left" d="M 0,1.40005 73.679237,20.522036 63.235854,77.195113 0,98.8086 Z"/>

</g>
<g id="safety_pin">
<!-- head -->
<circle fill="black" id="head_1" cx="24" cy="30" r="10" />
<rect   fill="black" id="head_2"  x="14"  y="30" width="20" height="6" />
<rect   fill="white" id="head_3"  x="13"  y="35" width="22" height="7" />

<!-- right wire -->
<rect   fill="black" id="wire1"   x="31"  y="30" width="3" height="40" />

<!-- loop -->
<circle fill="white" id="loop_c" cx="24.5" cy="66.5" r="11" />
<circle fill="black" id="loop"   cx="24.5" cy="66.5" r="9.5" />
<circle fill="white" id="loop_2" cx="24.5" cy="66.5" r="6.5" />
<rect   fill="white" id="shadow"  x="18"    y="57" width="1.5" height="9.5" />
<rect   fill="black" id="shadow"  x="15"    y="30" width="3" height="36.5" />
<!-- punch -->
<path   fill="white" id="punch_clip" d="M 14,38   24,42  24,52  14,56 z" />
<path   fill="black" id="punch_top"  d="M 12,38.5 21,42 h -5.30277 z" />
<path   fill="black" id="punch_top"  d="M 12,55.5 21,52 h -5.30277 z" />

</g>
</svg>